…
    ## Reading from "COVID-19 Comm Resources VOLUNTEER Input"

    ## Range "'MAIN SHEET -- UPDATE HERE'"

    ## New names:
    ## * `` -> ...1

``` r
#set to volunteer facing document right now

resources
```

    ## # A tibble: 124 x 13
    ##    type  organization location days_hours contact_info areas_served county
    ##    <chr> <chr>        <chr>    <chr>      <chr>        <chr>        <chr> 
    ##  1 Hous… Fair Oaks C… 2600 Mi… <NA>       "(650) 780-… Redwood Cit… San M…
    ##  2 Core… Samaritan H… 4031 Pa… <NA>       "(650) 347-… Belmont, Bu… San M…
    ##  3 Core… Samaritan H… 1852 Ba… <NA>       "(650) 294-… East Palo A… San M…
    ##  4 Core… West Valley… 10104 V… Monday - … "408-366-60… Santa Clara… Santa…
    ##  5 Core… Glide Memor… 330 Ell… Monday - … "(415) 674-… San Francis… San M…
    ##  6 Food  Ecumenical … 2411 Pu… Tuesday -… "(650) 323-… East Palo A… San M…
    ##  7 Food  Family Harv… St. Sam… Tuesday 1… "650-779-46… East Palo A… San M…
    ##  8 Food  Nuestra Casa 1842 W.… 1st and 3… "Kim Ruiz, … East Palo A… San M…
    ##  9 Food  Nuestra Casa 1991 Ma… 2nd and 4… "Kim Ruiz, … East Palo A… San M…
    ## 10 Food  Nuestra Casa 1805 E … 1st and 3… "Kim Ruiz, … East Palo A… San M…
    ## # … with 114 more rows, and 6 more variables: eligibility <chr>,
    ## #   notes_specifics <chr>, `links_(english)` <chr>, `links_(spanish)` <chr>,
    ## #   verification_method <chr>, include_in_pdf <chr>
…
