…
    ## Reading from "Bay Area School Meal Sites"

    ## Range "2:5000000"

``` r
school_meals
```

    ## # A tibble: 760 x 31
    ##    site_name address city  zip   lat   lon   district_name status pebt_info_yn
    ##    <chr>     <chr>   <chr> <chr> <chr> <chr> <chr>         <chr>  <chr>       
    ##  1 Junction… 298 Ju… Live… 94551 37.6… -121… Livermore Va… Open   1           
    ##  2 Marylin … 800 Ma… Live… 94551 37.6… -121… Livermore Va… Open   1           
    ##  3 Alameda … 677 W.… Alam… 94607 37.7… -122… Alameda Unif… Open   0           
    ##  4 Earheart… 400 Pa… Alam… 94502 37.7… -122… Alameda Unif… Open   0           
    ##  5 Wood Mid… 420 Gr… Alam… 94607 37.7… -122… Alameda Unif… Open   0           
    ##  6 College … 555 Ra… Alam… 94501 37.7… -122… Alameda Unif… Closed 0           
    ##  7 Albany H… 603 Ke… Alba… 94707 37.8… -122… Albany City … Open   0           
    ##  8 Berkeley… 2015 V… Berk… 94709 37.8… -122… Berkeley Uni… Closed 1           
    ##  9 Washingt… 2300 M… Berk… 94707 37.8… -122… Berkeley Uni… Open   1           
    ## 10 Rosa Par… 920 Al… Berk… 94710 37.8… -122… Berkeley Uni… Open   1           
    ## # … with 750 more rows, and 22 more variables: ebt_homepage <chr>,
    ## #   pebt_notes <chr>, contains_original_info <chr>, links_to_CDSS <chr>,
    ## #   links_to_cfa <chr>, open_hour <chr>, close_hour <chr>, notes <chr>,
    ## #   notes_es <chr>, days_of_week <chr>, county <chr>, phone <chr>, email <chr>,
    ## #   end_date <chr>, weblink <chr>, date_updated <chr>, date_verified <chr>,
    ## #   verified_by <chr>, meals_served <chr>, internal_notes <chr>,
    ## #   called_school_district <chr>, call_date <chr>
…
school_meals_months 
```

    ## # A tibble: 546 x 32
    ##    site_name address city  zip   lat   lon   district_name status pebt_info_yn
    ##    <chr>     <chr>   <chr> <chr> <chr> <chr> <chr>         <chr>  <chr>       
    ##  1 Junction… 298 Ju… Live… 94551 37.6… -121… Livermore Va… Open   1           
    ##  2 Marylin … 800 Ma… Live… 94551 37.6… -121… Livermore Va… Open   1           
    ##  3 Alameda … 677 W.… Alam… 94607 37.7… -122… Alameda Unif… Open   0           
    ##  4 Earheart… 400 Pa… Alam… 94502 37.7… -122… Alameda Unif… Open   0           
    ##  5 Wood Mid… 420 Gr… Alam… 94607 37.7… -122… Alameda Unif… Open   0           
    ##  6 Albany H… 603 Ke… Alba… 94707 37.8… -122… Albany City … Open   0           
    ##  7 Washingt… 2300 M… Berk… 94707 37.8… -122… Berkeley Uni… Open   1           
    ##  8 Rosa Par… 920 Al… Berk… 94710 37.8… -122… Berkeley Uni… Open   1           
    ##  9 Longfell… 1522 W… Berk… 95704 37.8… -122… Berkeley Uni… Open   1           
    ## 10 Berkeley… 1980 A… Berk… 94704 37.8… -122… Berkeley Uni… Open   1           
    ## # … with 536 more rows, and 23 more variables: ebt_homepage <chr>,
    ## #   pebt_notes <chr>, contains_original_info <chr>, links_to_CDSS <chr>,
    ## #   links_to_cfa <chr>, open_hour <chr>, close_hour <chr>, notes <chr>,
    ## #   notes_es <chr>, days_of_week <chr>, county <chr>, phone <chr>, email <chr>,
    ## #   end_date <chr>, weblink <chr>, date_updated <chr>, date_verified <chr>,
    ## #   verified_by <chr>, meals_served <chr>, internal_notes <chr>,
    ## #   called_school_district <chr>, call_date <chr>, end_month <chr>
…
    ## # A tibble: 3 x 2
    ##   status      n
    ##   <chr>   <int>
    ## 1 Closed    205
    ## 2 Open      546
    ## 3 Unclear     9

``` r
school_meals %>% 
  distinct(site_name)
```

    ## # A tibble: 738 x 1
    ##    site_name                      
    ##    <chr>                          
    ##  1 Junction Avenue K-8            
    ##  2 Marylin Avenue Elementary      
    ##  3 Alameda Point Collaborative    
    ##  4 Earheart Elementary School     
    ##  5 Wood Middle School             
    ##  6 College of Alameda             
    ##  7 Albany High School Cafeteria   
    ##  8 Berkeley Arts Magnet Elementary
    ##  9 Washington Elementary          
    ## 10 Rosa Parks Elementary          
    ## # … with 728 more rows

``` r
school_meals %>% 
  filter(!is.na(status)) %>% 
  distinct(district_name) #146 school districts 
```

    ## # A tibble: 144 x 1
    ##    district_name                 
    ##    <chr>                         
    ##  1 Livermore Valley Joint Unified
    ##  2 Alameda Unified               
    ##  3 Albany City Unified           
    ##  4 Berkeley Unified              
    ##  5 Castro Valley Unified         
    ##  6 Dublin Unified                
    ##  7 Emery Unified                 
    ##  8 Fremont Unified               
    ##  9 Hayward Unified               
    ## 10 New Haven Unified             
    ## # … with 134 more rows
…
    ## # A tibble: 2 x 2
    ##   pebt_info_yn     n
    ##   <chr>        <int>
    ## 1 0              387
    ## 2 1              351

``` r
school_meals %>% 
  filter(pebt_info_yn == "1") %>% 
  distinct(pebt_notes)
```

    ## # A tibble: 55 x 1
    ##    pebt_notes                                                                   
    ##    <chr>                                                                        
    ##  1 https://www.livermoreschools.org/Page/8790                                   
    ##  2 https://www.berkeleyschools.net/2020/05/pandemic-ebt-information/            
    ##  3 https://www.cv.k12.ca.us/apps/pages/index.jsp?uREC_ID=1728675&type=d&pREC_ID…
    ##  4 https://www.dublin.k12.ca.us/site/default.aspx?PageType=3&DomainID=1&ModuleI…
    ##  5 http://emeryusd.k12.ca.us/wp-content/uploads/2020/05/Pandemic-EBT-Informatio…
    ##  6 https://haywardusd-ca.schoolloop.com/pf4/cms2/news_themed_display?id=1590054…
    ##  7 https://www.mynhusd.org/apps/news/article/1233836                            
    ##  8 https://twitter.com/nusdschoolnews                                           
    ##  9 https://4.files.edl.io/acea/05/19/20/175812-db1f27cc-de08-4cfa-863c-b57b0501…
    ## 10 <NA>                                                                         
    ## # … with 45 more rows
…
``` r
school_meals %>% 
  filter(pebt_info_yn == "1") %>% 
  distinct(site_name)  #43 report 
```

    ## # A tibble: 347 x 1
    ##    site_name                           
    ##    <chr>                               
    ##  1 Junction Avenue K-8                 
    ##  2 Marylin Avenue Elementary           
    ##  3 Berkeley Arts Magnet Elementary     
    ##  4 Washington Elementary               
    ##  5 Rosa Parks Elementary               
    ##  6 Longfellow Middle School            
    ##  7 Berkeley High School                
    ##  8 Willard Middle School               
    ##  9 Martin Luther King Jr. Middle School
    ## 10 Castro Valley Elementary School     
    ## # … with 337 more rows
…
## Join with FRPM

``` r
frlink <- "/Users/joycetagal/GitHub/jayktee/bay-area-resources/bay_area_resources/data/frpm1920.xlsx"

frpm <- 
  readxl::read_xlsx(frlink, sheet = 2, skip = 1) %>% 
  rename_all(.funs = ~str_to_lower(.) %>% str_replace_all(., " ", "_") %>% str_replace_all(., "[()\\n//-]", "") %>% str_replace(., "%", "pct"))

frpm
```

    ## # A tibble: 10,592 x 28
    ##    academic_year county_code district_code school_code county_name district_name
    ##    <chr>         <chr>       <chr>         <chr>       <chr>       <chr>        
    ##  1 2019-2020     01          10017         0112607     Alameda     Alameda Coun…
    ##  2 2019-2020     01          10017         0123968     Alameda     Alameda Coun…
    ##  3 2019-2020     01          10017         0124172     Alameda     Alameda Coun…
    ##  4 2019-2020     01          10017         0125567     Alameda     Alameda Coun…
    ##  5 2019-2020     01          10017         0129403     Alameda     Alameda Coun…
    ##  6 2019-2020     01          10017         0130401     Alameda     Alameda Coun…
    ##  7 2019-2020     01          10017         0130419     Alameda     Alameda Coun…
    ##  8 2019-2020     01          10017         0131581     Alameda     Alameda Coun…
    ##  9 2019-2020     01          10017         0136101     Alameda     Alameda Coun…
    ## 10 2019-2020     01          10017         0136226     Alameda     Alameda Coun…
    ## # … with 10,582 more rows, and 22 more variables: school_name <chr>,
    ## #   district_type <chr>, school_type <chr>, educational_option_type <chr>,
    ## #   `nslp_\rprovision_\rstatus` <chr>, `charter_\rschool_\ryn` <chr>,
    ## #   `charter_\rschool_\rnumber` <chr>, `charter_\rfunding_\rtype` <chr>,
    ## #   irc <chr>, low_grade <chr>, high_grade <chr>, enrollment_k12 <dbl>,
    ## #   free_meal_count_k12 <dbl>, percent_pct_eligible_free_k12 <dbl>,
    ## #   frpm_count_k12 <dbl>, percent_pct_eligible_frpm_k12 <dbl>,
    ## #   `enrollment_\rages_517` <dbl>, `free_meal_count_\rages_517` <dbl>,
    ## #   `percent_pct_eligible_free_\rages_517` <dbl>,
…
``` r
frpm %>% 
  distinct(district_name)
```

    ## # A tibble: 1,023 x 1
    ##    district_name                                              
    ##    <chr>                                                      
    ##  1 Alameda County Office of Education                         
    ##  2 California School for the Blind (State Special Schl)       
    ##  3 California School for the Deaf-Fremont (State Special Schl)
    ##  4 Alameda Unified                                            
    ##  5 Albany City Unified                                        
    ##  6 Berkeley Unified                                           
    ##  7 Castro Valley Unified                                      
    ##  8 Emery Unified                                              
    ##  9 Fremont Unified                                            
    ## 10 Hayward Unified                                            
    ## # … with 1,013 more rows
…
school_meals_clean
```

    ## # A tibble: 504 x 32
    ##    site_name address city  zip   lat   lon   district_name status pebt_info_yn
    ##    <chr>     <chr>   <chr> <chr> <chr> <chr> <chr>         <chr>  <chr>       
    ##  1 Junction… 298 Ju… Live… 94551 37.6… -121… Livermore Va… Open   1           
    ##  2 Marylin … 800 Ma… Live… 94551 37.6… -121… Livermore Va… Open   1           
    ##  3 Alameda … 677 W.… Alam… 94607 37.7… -122… Alameda Unif… Open   0           
    ##  4 Earheart… 400 Pa… Alam… 94502 37.7… -122… Alameda Unif… Open   0           
    ##  5 Wood Mid… 420 Gr… Alam… 94607 37.7… -122… Alameda Unif… Open   0           
    ##  6 Albany H… 603 Ke… Alba… 94707 37.8… -122… Albany City … Open   0           
    ##  7 Washingt… 2300 M… Berk… 94707 37.8… -122… Berkeley Uni… Open   1           
    ##  8 Rosa Par… 920 Al… Berk… 94710 37.8… -122… Berkeley Uni… Open   1           
    ##  9 Longfell… 1522 W… Berk… 95704 37.8… -122… Berkeley Uni… Open   1           
    ## 10 Berkeley… 1980 A… Berk… 94704 37.8… -122… Berkeley Uni… Open   1           
    ## # … with 494 more rows, and 23 more variables: ebt_homepage <chr>,
    ## #   pebt_notes <chr>, contains_original_info <chr>, links_to_CDSS <chr>,
    ## #   links_to_cfa <chr>, open_hour <chr>, close_hour <chr>, notes <chr>,
    ## #   notes_es <chr>, days_of_week <chr>, county <chr>, phone <chr>, email <chr>,
    ## #   end_date <chr>, weblink <chr>, date_updated <chr>, date_verified <chr>,
    ## #   verified_by <chr>, meals_served <chr>, internal_notes <chr>,
    ## #   called_school_district <chr>, call_date <chr>, end_month <chr>

Checking for intersection between datasets

``` r
intersect(
  school_meals_clean %>% 
  distinct(district_name),
  frpm %>% 
  distinct(district_name)
)
```

    ## # A tibble: 103 x 1
    ##    district_name                 
    ##    <chr>                         
    ##  1 Livermore Valley Joint Unified
    ##  2 Alameda Unified               
    ##  3 Albany City Unified           
    ##  4 Berkeley Unified              
    ##  5 Dublin Unified                
    ##  6 Emery Unified                 
    ##  7 Fremont Unified               
    ##  8 Hayward Unified               
    ##  9 New Haven Unified             
    ## 10 Newark Unified                
    ## # … with 93 more rows
…
